GET http://vai.dev.sms.visionariesai.com/api/notifications/
{
    "meta": {
        "count": 102,
        "next": "http://vai.dev.sms.visionariesai.com/api/notifications/?limit=40&offset=40",
        "previous": null
    },
    "results": [
        {
            "title": "New Homework",
            "modified_by": {
                "modified_by": 1,
                "created": "2024-12-23T02:50:33.549827+05:30",
                "user_permissions": [],
                "first_name": "Narasing",
                "modified": "2025-08-06T09:58:15.374126+05:30",
                "timezone": "Asia/Kolkata",
                "group": 1,
                "email": "murapakanarasingarao@gmail.com",
                "date_joined": "2024-12-23T02:50:33+05:30",
                "is_active": true,
                "created_by": 1,
                "last_name": "M",
                "id": 3,
                "is_superuser": false,
                "is_staff": false,
                "last_login": "2025-08-06T09:58:15.367144+05:30"
            },
            "notification_sub_type": "Create",
            "description": "Please complete by Friday",
            "notification_type": "Academics",
            "modified": "2025-05-24T18:56:10.466203+05:30",
            "created_by": {
                "modified_by": 1,
                "created": "2024-12-23T02:50:33.549827+05:30",
                "user_permissions": [],
                "first_name": "Narasing",
                "modified": "2025-08-06T09:58:15.374126+05:30",
                "timezone": "Asia/Kolkata",
                "group": 1,
                "email": "murapakanarasingarao@gmail.com",
                "date_joined": "2024-12-23T02:50:33+05:30",
                "is_active": true,
                "created_by": 1,
                "last_name": "M",
                "id": 3,
                "is_superuser": false,
                "is_staff": false,
                "last_login": "2025-08-06T09:58:15.367144+05:30"
            },  
            "id": 27,
            "created": "2025-05-24T18:56:10.466203+05:30",
            "meta_data": {}
        },
        {
            "title": "Homework",
            "modified_by": {
                "modified_by": 1,
                "created": "2024-12-23T02:50:33.549827+05:30",
                "user_permissions": [],
                "first_name": "Narasing",
                "modified": "2025-08-06T09:58:15.374126+05:30",
                "timezone": "Asia/Kolkata",
                "group": 1,
                "email": "murapakanarasingarao@gmail.com",
                "date_joined": "2024-12-23T02:50:33+05:30",
                "is_active": true,
                "created_by": 1,
                "last_name": "M",
                "id": 3,
                "is_superuser": false,
                "is_staff": false,
                "last_login": "2025-08-06T09:58:15.367144+05:30"
            },
            "notification_sub_type": "Create",
            "description": "Please complete by Friday",
            "notification_type": "Academics",
            "modified": "2025-05-24T18:59:19.530206+05:30",
            "created_by": {
                "modified_by": 1,
                "created": "2024-12-23T02:50:33.549827+05:30",
                "user_permissions": [],
                "first_name": "Narasing",
                "modified": "2025-08-06T09:58:15.374126+05:30",
                "timezone": "Asia/Kolkata",
                "group": 1,
                "email": "murapakanarasingarao@gmail.com",
                "date_joined": "2024-12-23T02:50:33+05:30",
                "is_active": true,
                "created_by": 1,
                "last_name": "M",
                "id": 3,
                "is_superuser": false,
                "is_staff": false,
                "last_login": "2025-08-06T09:58:15.367144+05:30"
            },
            "id": 28,
            "created": "2025-05-24T18:59:19.530206+05:30",
            "meta_data": {}
        },
    ]
}

GET https://vai.dev.sms.visionariesai.com/api/notifications/?id=27

GET https://vai.dev.sms.visionariesai.com/api/notifications/notification-types
{
    "Academic Year": "Academic Year",
    "Branch": "Branch",
    "Department": "Department",
    "Standard": "Standard",
    "Section": "Section",
    "Student": "Student",
    "Staff": "Staff",
    "Employee": "Employee",
    "Guardian": "Guardian",
    "Attendance": "Attendance",
    "Timetable": "Timetable",
    "Exam": "Exam",
    "Question Paper": "Question Paper",
    "Answer": "Answer",
    "Concession": "Concession",
    "Fee": "Fee",
    "Payment": "Payment",
    "Inventory": "Inventory",
    "Event": "Event",
    "Leave": "Leave",
    "Complaint": "Complaint",
    "Feedback": "Feedback",
    "Notification": "Notification",
    "Document": "Document",
    "Schedule": "Schedule",
    "Room": "Room",
    "Vehicle": "Vehicle",
    "Fuel": "Fuel",
    "Route": "Route",
    "Transport": "Transport",
    "Hostel": "Hostel",
    "Room Allocation": "Room Allocation",
    "Hostel Allocation": "Hostel Allocation"
}